module gitlab.com/go-yp/composite-primary-key-research

go 1.18

require (
	github.com/go-sql-driver/mysql v1.6.0
	github.com/lib/pq v1.10.7
	github.com/stretchr/testify v1.8.1
	gonum.org/v1/plot v0.12.0
)

require (
	git.sr.ht/~sbinet/gg v0.3.1 // indirect
	github.com/ajstarks/svgo v0.0.0-20211024235047-1546f124cd8b // indirect
	github.com/davecgh/go-spew v1.1.1 // indirect
	github.com/go-fonts/liberation v0.2.0 // indirect
	github.com/go-latex/latex v0.0.0-20210823091927-c0d11ff05a81 // indirect
	github.com/go-pdf/fpdf v0.6.0 // indirect
	github.com/golang/freetype v0.0.0-20170609003504-e2365dfdc4a0 // indirect
	github.com/pmezard/go-difflib v1.0.0 // indirect
	golang.org/x/image v0.0.0-20220902085622-e7cb96979f69 // indirect
	golang.org/x/text v0.3.7 // indirect
	gopkg.in/yaml.v3 v3.0.1 // indirect
)
