15.61505750
19.57942400
22.41921025
24.23654400
30.59666125
28.12704300
29.00729750
32.38262100
36.28466175
37.10579350
41.78516150
40.81323100
38.21088450
41.37010050
40.70201925
40.09252375
50.68141475
62.09175300
90.44765300
138.10646225