16.09883575
27.48803450
40.38760375
44.05376900
66.71821850
62.97433350
70.03809400
94.23100525
114.56941450
116.10152400
127.19180850
172.05546700
126.68882100
121.89758200
120.51603800
163.86448125
386.86911600
411.32336000
218.89941600
355.43029675